<svg width="16" height="16" viewBox="0 0 16 16" fill="none" xmlns="http://www.w3.org/2000/svg">
<path fill-rule="evenodd" clip-rule="evenodd" d="M0.750691 0.750692C-0.25023 1.75161 -0.25023 3.37443 0.750691 4.37535L4.37535 8L0.750691 11.6247C-0.25023 12.6256 -0.25023 14.2484 0.750691 15.2493C1.75161 16.2502 3.37443 16.2502 4.37535 15.2493L8 11.6247L11.6247 15.2493C12.6256 16.2502 14.2484 16.2502 15.2493 15.2493C16.2502 14.2484 16.2502 12.6256 15.2493 11.6247L11.6247 8L15.2493 4.37535C16.2502 3.37443 16.2502 1.75161 15.2493 0.750692C14.2484 -0.250231 12.6256 -0.25023 11.6247 0.750692L8 4.37535L4.37535 0.750692C3.37443 -0.250231 1.75161 -0.250231 0.750691 0.750692Z" fill="#C0463F"/>
</svg>
